{
    "fluentMethods": true,
    "relationships": [],
    "fields": [
        {
            "fieldName": "name",
            "fieldType": "String"
        },
        {
            "fieldName": "status",
            "fieldType": "ApplicationStatus",
            "fieldValues": "ACTIVE,INACTIVE"
        },
        {
            "fieldName": "createdAt",
            "fieldType": "Instant"
        },
        {
            "fieldName": "lastModified",
            "fieldType": "Instant"
        },
        {
            "fieldName": "createdBy",
            "fieldType": "String"
        },
        {
            "fieldName": "lastModifiedBy",
            "fieldType": "String"
        }
    ],
    "changelogDate": "20180613135434",
    "entityTableName": "application",
    "dto": "mapstruct",
    "pagination": "pagination",
    "service": "serviceImpl",
    "jpaMetamodelFiltering": false
}